{
    "count": 1718,
    "page": 1,
    "totalPages": 573,
    "nextPage": 2,
    "previousPage": 0,
    "showingFrom": 1,
    "showingTo": 3,
    "items": [
        {
            "id": 38095,
            "tipo": "Notícia",
            "titulo": "Inflação fica em 0,26% em setembro, influenciada pelo aumento da gasolina",
            "introducao": "Subitem de maior peso do IPCA, a gasolina teve alta e impactou na inflação de setembro - Foto: Helena Pontes/Agência IBGE Notícias A inflação do mês de setembro foi de 0,26%, ficando 0,03 ponto percentual (p.p.) acima da taxa de 0,23% registrada em...",
            "data_publicacao": "11/10/2023 09:00:00",
            "produto_id": 0,
            "produtos": "9256|Índice Nacional de Preços ao Consumidor Amplo|indice-nacional-de-precos-ao-consumidor-amplo|2210;9258|Índice Nacional de Preços ao Consumidor|indice-nacional-de-precos-ao-consumidor|2077",
            "editorias": "economicas",
            "imagens": "{\"image_intro\":\"images\\/agenciadenoticias\\/estatisticas_economicas\\/2023_10\\/IPCA_THUMB_Helena-Pontes.jpg\",\"float_intro\":\"\",\"image_intro_alt\":\"\",\"image_intro_caption\":\"\",\"image_fulltext\":\"images\\/agenciadenoticias\\/estatisticas_economicas\\/2023_10\\/IPCA_HOME_Helena-Pontes.jpg\",\"float_fulltext\":\"\",\"image_fulltext_alt\":\"\",\"image_fulltext_caption\":\"\"}",
            "produtos_relacionados": "9256, 9258",
            "destaque": true,
            "link": "http://agenciadenoticias.ibge.gov.br/agencia-noticias/2012-agencia-de-noticias/noticias/38095-inflacao-fica-em-0-26-em-setembro-influenciada-pelo-aumento-da-gasolina.html"
        },
        {
            "id": 38090,
            "tipo": "Notícia",
            "titulo": "Preços da construção variam 0,02% em setembro com menor número de acordos coletivos",
            "introducao": "Com menos acordos coletivos, taxa da mão de obra passa de 0,64% em agosto para 0,36% em setembro - Foto: Lúcio Bernardo Jr./Agência Brasília O Índice Nacional da Construção Civil (Sinapi), divulgado hoje (11) pelo IBGE, apresentou variação de 0,02% em...",
            "data_publicacao": "11/10/2023 09:00:00",
            "produto_id": 9270,
            "produtos": "9270|Sistema Nacional de Pesquisa de Custos e Índices da Construção Civil|sistema-nacional-de-pesquisa-de-custos-e-indices-da-construcao-civil|2079",
            "editorias": "economicas",
            "imagens": "{\"image_intro\":\"images\\/agenciadenoticias\\/estatisticas_economicas\\/2023_10\\/SINAPI_THUMB_Lcio-Bernardo-Jr-Agncia-Braslia_2.jpg\",\"float_intro\":\"\",\"image_intro_alt\":\"\",\"image_intro_caption\":\"\",\"image_fulltext\":\"images\\/agenciadenoticias\\/estatisticas_economicas\\/2023_10\\/SINAPI_HOME_Lcio-Bernardo-Jr-Agncia-Braslia_2.jpg\",\"float_fulltext\":\"\",\"image_fulltext_alt\":\"\",\"image_fulltext_caption\":\"\"}",
            "produtos_relacionados": "9270",
            "destaque": true,
            "link": "http://agenciadenoticias.ibge.gov.br/agencia-noticias/2012-agencia-de-noticias/noticias/38090-precos-da-construcao-variam-0-02-em-setembro-com-menor-numero-de-acordos-coletivos.html"
        },
        {
            "id": 38075,
            "tipo": "Notícia",
            "titulo": "Estimativa de setembro prevê safra recorde de 318,1 milhões de toneladas para 2023",
            "introducao": "Com alta de 3,1% frente a estimativa de agosto, produção de milho passa para 131,7 milhões de toneladas em 2023 e atinge novo recorde. Foto: Helena Pontes/Agência IBGE Notícias O Levantamento Sistemático da Produção Agrícola (LSPA) para setembro,...",
            "data_publicacao": "10/10/2023 09:00:00",
            "produto_id": 9201,
            "produtos": "9201|Levantamento Sistemático da Produção Agrícola|levantamento-sistematico-da-producao-agricola|2071",
            "editorias": "economicas",
            "imagens": "{\"image_intro\":\"images\\/agenciadenoticias\\/estatisticas_economicas\\/2023_10\\/LSPA_thumb.jpg\",\"float_intro\":\"\",\"image_intro_alt\":\"\",\"image_intro_caption\":\"\",\"image_fulltext\":\"images\\/agenciadenoticias\\/estatisticas_economicas\\/2023_10\\/LSPA_home.jpg\",\"float_fulltext\":\"\",\"image_fulltext_alt\":\"\",\"image_fulltext_caption\":\"\"}",
            "produtos_relacionados": "9201",
            "destaque": true,
            "link": "http://agenciadenoticias.ibge.gov.br/agencia-noticias/2012-agencia-de-noticias/noticias/38075-estimativa-de-setembro-preve-safra-recorde-de-318-1-milhoes-de-toneladas-para-2023.html"
        }
    ]
}